{
  "images" : [
    {
      "idiom" : "universal",
      "scale" : "1x",
      "filename" : "favorite-films-bg.jpg"
    },
    {
      "idiom" : "universal",
      "scale" : "2x",
      "filename" : "favorite-films-bg@2x.jpg"
    },
    {
      "idiom" : "universal",
      "scale" : "3x",
      "filename" : "favorite-films-bg@3x.jpg"
    }
  ],
  "info" : {
    "version" : 1,
    "author" : "xcode"
  }
}