{
    "webs": [
             {
             "webpage": {
             "name": "Awards",
             "rss": "http://feeds.feedburner.com/indieWIREAwardsWatch"
             }
             },
             {
             "webpage": {
             "name": "Box Office",
             "rss": "http://feeds.feedburner.com/indieWIREBoxOffice"
             }
             },
             {
             "webpage": {
             "name": "Features",
             "rss": "http://feeds.feedburner.com/indieWIREFeatures"
             }
             },
             {
             "webpage": {
             "name": "Festivals",
             "rss": "http://feeds.feedburner.com/indieWIREFesitvals"
             }
             },
             {
             "webpage": {
             "name": "News",
             "rss": "http://feeds.feedburner.com/indieWIRENews"
             }
             },
             {
             "webpage": {
             "name": "Laemmle",
             "rss": "http://www.laemmle.com/blog/feed/"
             }
             }
             ]
}