{
    "webs": [
             {
             "webpage": {
             "theatreId" : "10645",
             "name": "Claremont 5",
             "rss": "http://www.laemmle.com/blog/category/theaters/claremont-5/feed/"
             }
             },
             {
             "webpage": {
             "theatreId" : "456",
             "name": "Monica 4",
             "rss": "http://www.laemmle.com/blog/category/theaters/monica-4/feed/"
             }
             },
             {
             "webpage": {
             "theatreId" : "1354",
             "name": "Music Hall 3",
             "rss": "http://www.laemmle.com/blog/category/theaters/music-hall-3/feed/"
             }
             },
             {
             "webpage": {
             "theatreId" : "28376",
             "name": "NoHo 7",
             "rss": "http://www.laemmle.com/blog/category/theaters/noho-7/feed/"
             }
             },
             {
             "webpage": {
             "theatreId" : "5599",
             "name": "Playhouse 7",
             "rss": "http://www.laemmle.com/blog/category/theaters/playhouse-7/feed/"
             }
             },
             {
             "webpage": {
             "theatreId" : "455",
             "name": "Royal",
             "rss": "http://www.laemmle.com/blog/category/theaters/royal-theatre/feed/"
             }
             },
             {
             "webpage": {
             "theatreId" : "1356",
             "name": "Town Center 5",
             "rss": "http://www.laemmle.com/blog/category/theaters/town-center-5/feed/"
             }
             }
             ]
}